Fitting your first Bayesian GLM in Julia
…
Load data

Let’s read in the salamanders dataset that is built-in to the glmmTMB package in R (insert ref). The salamanders dataset consists of counts (abundances) of a number of different salamander species from 23 different sites. There are a number of site (e.g. the amount of cover objects in the stream cover) and sampling covariates in the dataset (e.g. the day of the year each sampling event occurred DOY). Each site was sampled on 4 separate occasions, meaning that there is a hierarchical structure in the data, however, let’s not worry about that for today (we will come back to this in a later blogpost).

# Load in the dataset 
salamanders = RCall.rcopy(R"glmmTMB::Salamanders")

644×9 DataFrame
 Row │ site   mined  cover       sample  DOP         Wtemp       DOY        sp ⋯
     │ Cat…   Cat…   Float64     Int64   Float64     Float64     Float64    Ca ⋯
─────┼──────────────────────────────────────────────────────────────────────────
   1 │ VF-1   yes    -1.44232         1  -0.595683   -1.22938    -1.497     GP ⋯
   2 │ VF-2   yes     0.29841         1  -0.595683    0.0847653  -1.497     GP
   3 │ VF-3   yes     0.397881        1  -1.19137     1.01418    -1.29447   GP
   4 │ R-1    no     -0.447616        1   0.0        -3.02336    -2.71222   GP
   5 │ R-2    no      0.596821        1   0.595683   -0.144345   -0.68686   GP ⋯
   6 │ R-3    no      1.34285         1   0.595683   -0.0146601  -0.68686   GP
   7 │ R-4    no     -0.944966        1  -0.595683   -0.446944   -0.97041   GP
   8 │ R-5    no      0.497351        1  -0.595683   -0.602567   -0.97041   GP
  ⋮  │   ⋮      ⋮        ⋮         ⋮         ⋮           ⋮           ⋮       ⋮ ⋱
 638 │ VF-6   yes    -0.397881        4  -0.0915999   0.510846    1.46002   DF ⋯
 639 │ R-12   no      0.795761        4  -0.0915999  -0.188417    1.25748   DF
 640 │ VF-7   yes    -0.696291        4  -0.0915999   2.05658     1.41951   DF
 641 │ VF-9   yes     0.447616        4  -0.0915999   0.768469    1.46002   DF
 642 │ VF-8   yes    -0.696291        4  -0.0915999  -1.73416     1.46002   DF ⋯
 643 │ VF-10  yes    -0.795761        4  -0.0915999   0.308428    1.41951   DF
 644 │ VF-11  yes    -0.646556        4  -0.0915999  -0.722065    1.46002   DF
                                                  2 columns and 629 rows omitted
…
